{
    "packages": [],
    "includes": {
        "include/all$4a2c8260e89613251aea393eba433f8d749a2d80.json": {
            "sha1": "4a2c8260e89613251aea393eba433f8d749a2d80"
        }
    },
    "metadata-url": "/p2/%package%.json"
}
